%YAML 1.1
%TAG !u! tag:unity3d.com,2011:
--- !u!1 &3603900202245036023
GameObject:
  m_ObjectHideFlags: 0
  m_CorrespondingSourceObject: {fileID: 0}
  m_PrefabInstance: {fileID: 0}
  m_PrefabAsset: {fileID: 0}
  serializedVersion: 6
  m_Component:
  - component: {fileID: 7947060567751942282}
  - component: {fileID: 753190457356978604}
  m_Layer: 31
  m_Name: Palette
  m_TagString: Untagged
  m_Icon: {fileID: 0}
  m_NavMeshLayer: 0
  m_StaticEditorFlags: 0
  m_IsActive: 1
--- !u!4 &7947060567751942282
Transform:
  m_ObjectHideFlags: 0
  m_CorrespondingSourceObject: {fileID: 0}
  m_PrefabInstance: {fileID: 0}
  m_PrefabAsset: {fileID: 0}
  m_GameObject: {fileID: 3603900202245036023}
  m_LocalRotation: {x: 0, y: 0, z: 0, w: 1}
  m_LocalPosition: {x: 0, y: 0, z: 0}
  m_LocalScale: {x: 1, y: 1, z: 1}
  m_Children:
  - {fileID: 1947196810432354443}
  m_Father: {fileID: 0}
  m_RootOrder: 0
  m_LocalEulerAnglesHint: {x: 0, y: 0, z: 0}
--- !u!156049354 &753190457356978604
Grid:
  m_ObjectHideFlags: 0
  m_CorrespondingSourceObject: {fileID: 0}
  m_PrefabInstance: {fileID: 0}
  m_PrefabAsset: {fileID: 0}
  m_GameObject: {fileID: 3603900202245036023}
  m_Enabled: 1
  m_CellSize: {x: 1, y: 1, z: 0}
  m_CellGap: {x: 0, y: 0, z: 0}
  m_CellLayout: 0
  m_CellSwizzle: 0
--- !u!1 &6456805004129295480
GameObject:
  m_ObjectHideFlags: 0
  m_CorrespondingSourceObject: {fileID: 0}
  m_PrefabInstance: {fileID: 0}
  m_PrefabAsset: {fileID: 0}
  serializedVersion: 6
  m_Component:
  - component: {fileID: 1947196810432354443}
  - component: {fileID: 3561326872630206757}
  - component: {fileID: 3545502975019000518}
  m_Layer: 31
  m_Name: Layer1
  m_TagString: Untagged
  m_Icon: {fileID: 0}
  m_NavMeshLayer: 0
  m_StaticEditorFlags: 0
  m_IsActive: 1
--- !u!4 &1947196810432354443
Transform:
  m_ObjectHideFlags: 0
  m_CorrespondingSourceObject: {fileID: 0}
  m_PrefabInstance: {fileID: 0}
  m_PrefabAsset: {fileID: 0}
  m_GameObject: {fileID: 6456805004129295480}
  m_LocalRotation: {x: -0, y: -0, z: -0, w: 1}
  m_LocalPosition: {x: 0, y: 0, z: 0}
  m_LocalScale: {x: 1, y: 1, z: 1}
  m_Children: []
  m_Father: {fileID: 7947060567751942282}
  m_RootOrder: 0
  m_LocalEulerAnglesHint: {x: 0, y: 0, z: 0}
--- !u!1839735485 &3561326872630206757
Tilemap:
  m_ObjectHideFlags: 0
  m_CorrespondingSourceObject: {fileID: 0}
  m_PrefabInstance: {fileID: 0}
  m_PrefabAsset: {fileID: 0}
  m_GameObject: {fileID: 6456805004129295480}
  m_Enabled: 1
  m_Tiles:
  - first: {x: -1, y: -10, z: 0}
    second:
      serializedVersion: 2
      m_TileIndex: 129
      m_TileSpriteIndex: 129
      m_TileMatrixIndex: 0
      m_TileColorIndex: 0
      m_TileObjectToInstantiateIndex: 65535
      m_AllTileFlags: 1073741825
  - first: {x: 0, y: -10, z: 0}
    second:
      serializedVersion: 2
      m_TileIndex: 130
      m_TileSpriteIndex: 130
      m_TileMatrixIndex: 0
      m_TileColorIndex: 0
      m_TileObjectToInstantiateIndex: 65535
      m_AllTileFlags: 1073741825
  - first: {x: 1, y: -10, z: 0}
    second:
      serializedVersion: 2
      m_TileIndex: 131
      m_TileSpriteIndex: 131
      m_TileMatrixIndex: 0
      m_TileColorIndex: 0
      m_TileObjectToInstantiateIndex: 65535
      m_AllTileFlags: 1073741825
  - first: {x: 2, y: -10, z: 0}
    second:
      serializedVersion: 2
      m_TileIndex: 132
      m_TileSpriteIndex: 132
      m_TileMatrixIndex: 0
      m_TileColorIndex: 0
      m_TileObjectToInstantiateIndex: 65535
      m_AllTileFlags: 1073741825
  - first: {x: 3, y: -10, z: 0}
    second:
      serializedVersion: 2
      m_TileIndex: 133
      m_TileSpriteIndex: 133
      m_TileMatrixIndex: 0
      m_TileColorIndex: 0
      m_TileObjectToInstantiateIndex: 65535
      m_AllTileFlags: 1073741825
  - first: {x: 4, y: -10, z: 0}
    second:
      serializedVersion: 2
      m_TileIndex: 134
      m_TileSpriteIndex: 134
      m_TileMatrixIndex: 0
      m_TileColorIndex: 0
      m_TileObjectToInstantiateIndex: 65535
      m_AllTileFlags: 1073741825
  - first: {x: 5, y: -10, z: 0}
    second:
      serializedVersion: 2
      m_TileIndex: 135
      m_TileSpriteIndex: 135
      m_TileMatrixIndex: 0
      m_TileColorIndex: 0
      m_TileObjectToInstantiateIndex: 65535
      m_AllTileFlags: 1073741825
  - first: {x: 6, y: -10, z: 0}
    second:
      serializedVersion: 2
      m_TileIndex: 136
      m_TileSpriteIndex: 136
      m_TileMatrixIndex: 0
      m_TileColorIndex: 0
      m_TileObjectToInstantiateIndex: 65535
      m_AllTileFlags: 1073741825
  - first: {x: 7, y: -10, z: 0}
    second:
      serializedVersion: 2
      m_TileIndex: 137
      m_TileSpriteIndex: 137
      m_TileMatrixIndex: 0
      m_TileColorIndex: 0
      m_TileObjectToInstantiateIndex: 65535
      m_AllTileFlags: 1073741825
  - first: {x: 8, y: -10, z: 0}
    second:
      serializedVersion: 2
      m_TileIndex: 138
      m_TileSpriteIndex: 138
      m_TileMatrixIndex: 0
      m_TileColorIndex: 0
      m_TileObjectToInstantiateIndex: 65535
      m_AllTileFlags: 1073741825
  - first: {x: -1, y: -9, z: 0}
    second:
      serializedVersion: 2
      m_TileIndex: 111
      m_TileSpriteIndex: 111
      m_TileMatrixIndex: 0
      m_TileColorIndex: 0
      m_TileObjectToInstantiateIndex: 65535
      m_AllTileFlags: 1073741825
  - first: {x: 0, y: -9, z: 0}
    second:
      serializedVersion: 2
      m_TileIndex: 112
      m_TileSpriteIndex: 112
      m_TileMatrixIndex: 0
      m_TileColorIndex: 0
      m_TileObjectToInstantiateIndex: 65535
      m_AllTileFlags: 1073741825
  - first: {x: 1, y: -9, z: 0}
    second:
      serializedVersion: 2
      m_TileIndex: 113
      m_TileSpriteIndex: 113
      m_TileMatrixIndex: 0
      m_TileColorIndex: 0
      m_TileObjectToInstantiateIndex: 65535
      m_AllTileFlags: 1073741825
  - first: {x: 2, y: -9, z: 0}
    second:
      serializedVersion: 2
      m_TileIndex: 114
      m_TileSpriteIndex: 114
      m_TileMatrixIndex: 0
      m_TileColorIndex: 0
      m_TileObjectToInstantiateIndex: 65535
      m_AllTileFlags: 1073741825
  - first: {x: 3, y: -9, z: 0}
    second:
      serializedVersion: 2
      m_TileIndex: 115
      m_TileSpriteIndex: 115
      m_TileMatrixIndex: 0
      m_TileColorIndex: 0
      m_TileObjectToInstantiateIndex: 65535
      m_AllTileFlags: 1073741825
  - first: {x: 4, y: -9, z: 0}
    second:
      serializedVersion: 2
      m_TileIndex: 116
      m_TileSpriteIndex: 116
      m_TileMatrixIndex: 0
      m_TileColorIndex: 0
      m_TileObjectToInstantiateIndex: 65535
      m_AllTileFlags: 1073741825
  - first: {x: 5, y: -9, z: 0}
    second:
      serializedVersion: 2
      m_TileIndex: 117
      m_TileSpriteIndex: 117
      m_TileMatrixIndex: 0
      m_TileColorIndex: 0
      m_TileObjectToInstantiateIndex: 65535
      m_AllTileFlags: 1073741825
  - first: {x: 6, y: -9, z: 0}
    second:
      serializedVersion: 2
      m_TileIndex: 118
      m_TileSpriteIndex: 118
      m_TileMatrixIndex: 0
      m_TileColorIndex: 0
      m_TileObjectToInstantiateIndex: 65535
      m_AllTileFlags: 1073741825
  - first: {x: 7, y: -9, z: 0}
    second:
      serializedVersion: 2
      m_TileIndex: 119
      m_TileSpriteIndex: 119
      m_TileMatrixIndex: 0
      m_TileColorIndex: 0
      m_TileObjectToInstantiateIndex: 65535
      m_AllTileFlags: 1073741825
  - first: {x: 8, y: -9, z: 0}
    second:
      serializedVersion: 2
      m_TileIndex: 120
      m_TileSpriteIndex: 120
      m_TileMatrixIndex: 0
      m_TileColorIndex: 0
      m_TileObjectToInstantiateIndex: 65535
      m_AllTileFlags: 1073741825
  - first: {x: 9, y: -9, z: 0}
    second:
      serializedVersion: 2
      m_TileIndex: 121
      m_TileSpriteIndex: 121
      m_TileMatrixIndex: 0
      m_TileColorIndex: 0
      m_TileObjectToInstantiateIndex: 65535
      m_AllTileFlags: 1073741825
  - first: {x: 10, y: -9, z: 0}
    second:
      serializedVersion: 2
      m_TileIndex: 122
      m_TileSpriteIndex: 122
      m_TileMatrixIndex: 0
      m_TileColorIndex: 0
      m_TileObjectToInstantiateIndex: 65535
      m_AllTileFlags: 1073741825
  - first: {x: 11, y: -9, z: 0}
    second:
      serializedVersion: 2
      m_TileIndex: 123
      m_TileSpriteIndex: 123
      m_TileMatrixIndex: 0
      m_TileColorIndex: 0
      m_TileObjectToInstantiateIndex: 65535
      m_AllTileFlags: 1073741825
  - first: {x: 12, y: -9, z: 0}
    second:
      serializedVersion: 2
      m_TileIndex: 124
      m_TileSpriteIndex: 124
      m_TileMatrixIndex: 0
      m_TileColorIndex: 0
      m_TileObjectToInstantiateIndex: 65535
      m_AllTileFlags: 1073741825
  - first: {x: 13, y: -9, z: 0}
    second:
      serializedVersion: 2
      m_TileIndex: 125
      m_TileSpriteIndex: 125
      m_TileMatrixIndex: 0
      m_TileColorIndex: 0
      m_TileObjectToInstantiateIndex: 65535
      m_AllTileFlags: 1073741825
  - first: {x: 14, y: -9, z: 0}
    second:
      serializedVersion: 2
      m_TileIndex: 126
      m_TileSpriteIndex: 126
      m_TileMatrixIndex: 0
      m_TileColorIndex: 0
      m_TileObjectToInstantiateIndex: 65535
      m_AllTileFlags: 1073741825
  - first: {x: 15, y: -9, z: 0}
    second:
      serializedVersion: 2
      m_TileIndex: 127
      m_TileSpriteIndex: 127
      m_TileMatrixIndex: 0
      m_TileColorIndex: 0
      m_TileObjectToInstantiateIndex: 65535
      m_AllTileFlags: 1073741825
  - first: {x: 16, y: -9, z: 0}
    second:
      serializedVersion: 2
      m_TileIndex: 128
      m_TileSpriteIndex: 128
      m_TileMatrixIndex: 0
      m_TileColorIndex: 0
      m_TileObjectToInstantiateIndex: 65535
      m_AllTileFlags: 1073741825
  - first: {x: -1, y: -8, z: 0}
    second:
      serializedVersion: 2
      m_TileIndex: 93
      m_TileSpriteIndex: 93
      m_TileMatrixIndex: 0
      m_TileColorIndex: 0
      m_TileObjectToInstantiateIndex: 65535
      m_AllTileFlags: 1073741825
  - first: {x: 0, y: -8, z: 0}
    second:
      serializedVersion: 2
      m_TileIndex: 94
      m_TileSpriteIndex: 94
      m_TileMatrixIndex: 0
      m_TileColorIndex: 0
      m_TileObjectToInstantiateIndex: 65535
      m_AllTileFlags: 1073741825
  - first: {x: 1, y: -8, z: 0}
    second:
      serializedVersion: 2
      m_TileIndex: 95
      m_TileSpriteIndex: 95
      m_TileMatrixIndex: 0
      m_TileColorIndex: 0
      m_TileObjectToInstantiateIndex: 65535
      m_AllTileFlags: 1073741825
  - first: {x: 2, y: -8, z: 0}
    second:
      serializedVersion: 2
      m_TileIndex: 96
      m_TileSpriteIndex: 96
      m_TileMatrixIndex: 0
      m_TileColorIndex: 0
      m_TileObjectToInstantiateIndex: 65535
      m_AllTileFlags: 1073741825
  - first: {x: 3, y: -8, z: 0}
    second:
      serializedVersion: 2
      m_TileIndex: 97
      m_TileSpriteIndex: 97
      m_TileMatrixIndex: 0
      m_TileColorIndex: 0
      m_TileObjectToInstantiateIndex: 65535
      m_AllTileFlags: 1073741825
  - first: {x: 4, y: -8, z: 0}
    second:
      serializedVersion: 2
      m_TileIndex: 98
      m_TileSpriteIndex: 98
      m_TileMatrixIndex: 0
      m_TileColorIndex: 0
      m_TileObjectToInstantiateIndex: 65535
      m_AllTileFlags: 1073741825
  - first: {x: 5, y: -8, z: 0}
    second:
      serializedVersion: 2
      m_TileIndex: 99
      m_TileSpriteIndex: 99
      m_TileMatrixIndex: 0
      m_TileColorIndex: 0
      m_TileObjectToInstantiateIndex: 65535
      m_AllTileFlags: 1073741825
  - first: {x: 6, y: -8, z: 0}
    second:
      serializedVersion: 2
      m_TileIndex: 100
      m_TileSpriteIndex: 100
      m_TileMatrixIndex: 0
      m_TileColorIndex: 0
      m_TileObjectToInstantiateIndex: 65535
      m_AllTileFlags: 1073741825
  - first: {x: 7, y: -8, z: 0}
    second:
      serializedVersion: 2
      m_TileIndex: 101
      m_TileSpriteIndex: 101
      m_TileMatrixIndex: 0
      m_TileColorIndex: 0
      m_TileObjectToInstantiateIndex: 65535
      m_AllTileFlags: 1073741825
  - first: {x: 8, y: -8, z: 0}
    second:
      serializedVersion: 2
      m_TileIndex: 102
      m_TileSpriteIndex: 102
      m_TileMatrixIndex: 0
      m_TileColorIndex: 0
      m_TileObjectToInstantiateIndex: 65535
      m_AllTileFlags: 1073741825
  - first: {x: 9, y: -8, z: 0}
    second:
      serializedVersion: 2
      m_TileIndex: 103
      m_TileSpriteIndex: 103
      m_TileMatrixIndex: 0
      m_TileColorIndex: 0
      m_TileObjectToInstantiateIndex: 65535
      m_AllTileFlags: 1073741825
  - first: {x: 10, y: -8, z: 0}
    second:
      serializedVersion: 2
      m_TileIndex: 104
      m_TileSpriteIndex: 104
      m_TileMatrixIndex: 0
      m_TileColorIndex: 0
      m_TileObjectToInstantiateIndex: 65535
      m_AllTileFlags: 1073741825
  - first: {x: 11, y: -8, z: 0}
    second:
      serializedVersion: 2
      m_TileIndex: 105
      m_TileSpriteIndex: 105
      m_TileMatrixIndex: 0
      m_TileColorIndex: 0
      m_TileObjectToInstantiateIndex: 65535
      m_AllTileFlags: 1073741825
  - first: {x: 12, y: -8, z: 0}
    second:
      serializedVersion: 2
      m_TileIndex: 106
      m_TileSpriteIndex: 106
      m_TileMatrixIndex: 0
      m_TileColorIndex: 0
      m_TileObjectToInstantiateIndex: 65535
      m_AllTileFlags: 1073741825
  - first: {x: 13, y: -8, z: 0}
    second:
      serializedVersion: 2
      m_TileIndex: 107
      m_TileSpriteIndex: 107
      m_TileMatrixIndex: 0
      m_TileColorIndex: 0
      m_TileObjectToInstantiateIndex: 65535
      m_AllTileFlags: 1073741825
  - first: {x: 14, y: -8, z: 0}
    second:
      serializedVersion: 2
      m_TileIndex: 108
      m_TileSpriteIndex: 108
      m_TileMatrixIndex: 0
      m_TileColorIndex: 0
      m_TileObjectToInstantiateIndex: 65535
      m_AllTileFlags: 1073741825
  - first: {x: 15, y: -8, z: 0}
    second:
      serializedVersion: 2
      m_TileIndex: 109
      m_TileSpriteIndex: 109
      m_TileMatrixIndex: 0
      m_TileColorIndex: 0
      m_TileObjectToInstantiateIndex: 65535
      m_AllTileFlags: 1073741825
  - first: {x: 16, y: -8, z: 0}
    second:
      serializedVersion: 2
      m_TileIndex: 110
      m_TileSpriteIndex: 110
      m_TileMatrixIndex: 0
      m_TileColorIndex: 0
      m_TileObjectToInstantiateIndex: 65535
      m_AllTileFlags: 1073741825
  - first: {x: -1, y: -7, z: 0}
    second:
      serializedVersion: 2
      m_TileIndex: 83
      m_TileSpriteIndex: 83
      m_TileMatrixIndex: 0
      m_TileColorIndex: 0
      m_TileObjectToInstantiateIndex: 65535
      m_AllTileFlags: 1073741825
  - first: {x: 0, y: -7, z: 0}
    second:
      serializedVersion: 2
      m_TileIndex: 84
      m_TileSpriteIndex: 84
      m_TileMatrixIndex: 0
      m_TileColorIndex: 0
      m_TileObjectToInstantiateIndex: 65535
      m_AllTileFlags: 1073741825
  - first: {x: 1, y: -7, z: 0}
    second:
      serializedVersion: 2
      m_TileIndex: 85
      m_TileSpriteIndex: 85
      m_TileMatrixIndex: 0
      m_TileColorIndex: 0
      m_TileObjectToInstantiateIndex: 65535
      m_AllTileFlags: 1073741825
  - first: {x: 2, y: -7, z: 0}
    second:
      serializedVersion: 2
      m_TileIndex: 86
      m_TileSpriteIndex: 86
      m_TileMatrixIndex: 0
      m_TileColorIndex: 0
      m_TileObjectToInstantiateIndex: 65535
      m_AllTileFlags: 1073741825
  - first: {x: 5, y: -7, z: 0}
    second:
      serializedVersion: 2
      m_TileIndex: 87
      m_TileSpriteIndex: 87
      m_TileMatrixIndex: 0
      m_TileColorIndex: 0
      m_TileObjectToInstantiateIndex: 65535
      m_AllTileFlags: 1073741825
  - first: {x: 6, y: -7, z: 0}
    second:
      serializedVersion: 2
      m_TileIndex: 88
      m_TileSpriteIndex: 88
      m_TileMatrixIndex: 0
      m_TileColorIndex: 0
      m_TileObjectToInstantiateIndex: 65535
      m_AllTileFlags: 1073741825
  - first: {x: 8, y: -7, z: 0}
    second:
      serializedVersion: 2
      m_TileIndex: 89
      m_TileSpriteIndex: 89
      m_TileMatrixIndex: 0
      m_TileColorIndex: 0
      m_TileObjectToInstantiateIndex: 65535
      m_AllTileFlags: 1073741825
  - first: {x: 12, y: -7, z: 0}
    second:
      serializedVersion: 2
      m_TileIndex: 90
      m_TileSpriteIndex: 90
      m_TileMatrixIndex: 0
      m_TileColorIndex: 0
      m_TileObjectToInstantiateIndex: 65535
      m_AllTileFlags: 1073741825
  - first: {x: 13, y: -7, z: 0}
    second:
      serializedVersion: 2
      m_TileIndex: 91
      m_TileSpriteIndex: 91
      m_TileMatrixIndex: 0
      m_TileColorIndex: 0
      m_TileObjectToInstantiateIndex: 65535
      m_AllTileFlags: 1073741825
  - first: {x: 14, y: -7, z: 0}
    second:
      serializedVersion: 2
      m_TileIndex: 92
      m_TileSpriteIndex: 92
      m_TileMatrixIndex: 0
      m_TileColorIndex: 0
      m_TileObjectToInstantiateIndex: 65535
      m_AllTileFlags: 1073741825
  - first: {x: -1, y: -6, z: 0}
    second:
      serializedVersion: 2
      m_TileIndex: 68
      m_TileSpriteIndex: 68
      m_TileMatrixIndex: 0
      m_TileColorIndex: 0
      m_TileObjectToInstantiateIndex: 65535
      m_AllTileFlags: 1073741825
  - first: {x: 0, y: -6, z: 0}
    second:
      serializedVersion: 2
      m_TileIndex: 69
      m_TileSpriteIndex: 69
      m_TileMatrixIndex: 0
      m_TileColorIndex: 0
      m_TileObjectToInstantiateIndex: 65535
      m_AllTileFlags: 1073741825
  - first: {x: 1, y: -6, z: 0}
    second:
      serializedVersion: 2
      m_TileIndex: 70
      m_TileSpriteIndex: 70
      m_TileMatrixIndex: 0
      m_TileColorIndex: 0
      m_TileObjectToInstantiateIndex: 65535
      m_AllTileFlags: 1073741825
  - first: {x: 2, y: -6, z: 0}
    second:
      serializedVersion: 2
      m_TileIndex: 71
      m_TileSpriteIndex: 71
      m_TileMatrixIndex: 0
      m_TileColorIndex: 0
      m_TileObjectToInstantiateIndex: 65535
      m_AllTileFlags: 1073741825
  - first: {x: 3, y: -6, z: 0}
    second:
      serializedVersion: 2
      m_TileIndex: 72
      m_TileSpriteIndex: 72
      m_TileMatrixIndex: 0
      m_TileColorIndex: 0
      m_TileObjectToInstantiateIndex: 65535
      m_AllTileFlags: 1073741825
  - first: {x: 4, y: -6, z: 0}
    second:
      serializedVersion: 2
      m_TileIndex: 73
      m_TileSpriteIndex: 73
      m_TileMatrixIndex: 0
      m_TileColorIndex: 0
      m_TileObjectToInstantiateIndex: 65535
      m_AllTileFlags: 1073741825
  - first: {x: 5, y: -6, z: 0}
    second:
      serializedVersion: 2
      m_TileIndex: 74
      m_TileSpriteIndex: 74
      m_TileMatrixIndex: 0
      m_TileColorIndex: 0
      m_TileObjectToInstantiateIndex: 65535
      m_AllTileFlags: 1073741825
  - first: {x: 6, y: -6, z: 0}
    second:
      serializedVersion: 2
      m_TileIndex: 75
      m_TileSpriteIndex: 75
      m_TileMatrixIndex: 0
      m_TileColorIndex: 0
      m_TileObjectToInstantiateIndex: 65535
      m_AllTileFlags: 1073741825
  - first: {x: 7, y: -6, z: 0}
    second:
      serializedVersion: 2
      m_TileIndex: 76
      m_TileSpriteIndex: 76
      m_TileMatrixIndex: 0
      m_TileColorIndex: 0
      m_TileObjectToInstantiateIndex: 65535
      m_AllTileFlags: 1073741825
  - first: {x: 8, y: -6, z: 0}
    second:
      serializedVersion: 2
      m_TileIndex: 77
      m_TileSpriteIndex: 77
      m_TileMatrixIndex: 0
      m_TileColorIndex: 0
      m_TileObjectToInstantiateIndex: 65535
      m_AllTileFlags: 1073741825
  - first: {x: 11, y: -6, z: 0}
    second:
      serializedVersion: 2
      m_TileIndex: 78
      m_TileSpriteIndex: 78
      m_TileMatrixIndex: 0
      m_TileColorIndex: 0
      m_TileObjectToInstantiateIndex: 65535
      m_AllTileFlags: 1073741825
  - first: {x: 12, y: -6, z: 0}
    second:
      serializedVersion: 2
      m_TileIndex: 79
      m_TileSpriteIndex: 79
      m_TileMatrixIndex: 0
      m_TileColorIndex: 0
      m_TileObjectToInstantiateIndex: 65535
      m_AllTileFlags: 1073741825
  - first: {x: 13, y: -6, z: 0}
    second:
      serializedVersion: 2
      m_TileIndex: 80
      m_TileSpriteIndex: 80
      m_TileMatrixIndex: 0
      m_TileColorIndex: 0
      m_TileObjectToInstantiateIndex: 65535
      m_AllTileFlags: 1073741825
  - first: {x: 14, y: -6, z: 0}
    second:
      serializedVersion: 2
      m_TileIndex: 81
      m_TileSpriteIndex: 81
      m_TileMatrixIndex: 0
      m_TileColorIndex: 0
      m_TileObjectToInstantiateIndex: 65535
      m_AllTileFlags: 1073741825
  - first: {x: 15, y: -6, z: 0}
    second:
      serializedVersion: 2
      m_TileIndex: 82
      m_TileSpriteIndex: 82
      m_TileMatrixIndex: 0
      m_TileColorIndex: 0
      m_TileObjectToInstantiateIndex: 65535
      m_AllTileFlags: 1073741825
  - first: {x: -1, y: -5, z: 0}
    second:
      serializedVersion: 2
      m_TileIndex: 53
      m_TileSpriteIndex: 53
      m_TileMatrixIndex: 0
      m_TileColorIndex: 0
      m_TileObjectToInstantiateIndex: 65535
      m_AllTileFlags: 1073741825
  - first: {x: 0, y: -5, z: 0}
    second:
      serializedVersion: 2
      m_TileIndex: 54
      m_TileSpriteIndex: 54
      m_TileMatrixIndex: 0
      m_TileColorIndex: 0
      m_TileObjectToInstantiateIndex: 65535
      m_AllTileFlags: 1073741825
  - first: {x: 1, y: -5, z: 0}
    second:
      serializedVersion: 2
      m_TileIndex: 55
      m_TileSpriteIndex: 55
      m_TileMatrixIndex: 0
      m_TileColorIndex: 0
      m_TileObjectToInstantiateIndex: 65535
      m_AllTileFlags: 1073741825
  - first: {x: 2, y: -5, z: 0}
    second:
      serializedVersion: 2
      m_TileIndex: 56
      m_TileSpriteIndex: 56
      m_TileMatrixIndex: 0
      m_TileColorIndex: 0
      m_TileObjectToInstantiateIndex: 65535
      m_AllTileFlags: 1073741825
  - first: {x: 3, y: -5, z: 0}
    second:
      serializedVersion: 2
      m_TileIndex: 57
      m_TileSpriteIndex: 57
      m_TileMatrixIndex: 0
      m_TileColorIndex: 0
      m_TileObjectToInstantiateIndex: 65535
      m_AllTileFlags: 1073741825
  - first: {x: 4, y: -5, z: 0}
    second:
      serializedVersion: 2
      m_TileIndex: 58
      m_TileSpriteIndex: 58
      m_TileMatrixIndex: 0
      m_TileColorIndex: 0
      m_TileObjectToInstantiateIndex: 65535
      m_AllTileFlags: 1073741825
  - first: {x: 5, y: -5, z: 0}
    second:
      serializedVersion: 2
      m_TileIndex: 59
      m_TileSpriteIndex: 59
      m_TileMatrixIndex: 0
      m_TileColorIndex: 0
      m_TileObjectToInstantiateIndex: 65535
      m_AllTileFlags: 1073741825
  - first: {x: 6, y: -5, z: 0}
    second:
      serializedVersion: 2
      m_TileIndex: 60
      m_TileSpriteIndex: 60
      m_TileMatrixIndex: 0
      m_TileColorIndex: 0
      m_TileObjectToInstantiateIndex: 65535
      m_AllTileFlags: 1073741825
  - first: {x: 7, y: -5, z: 0}
    second:
      serializedVersion: 2
      m_TileIndex: 61
      m_TileSpriteIndex: 61
      m_TileMatrixIndex: 0
      m_TileColorIndex: 0
      m_TileObjectToInstantiateIndex: 65535
      m_AllTileFlags: 1073741825
  - first: {x: 8, y: -5, z: 0}
    second:
      serializedVersion: 2
      m_TileIndex: 62
      m_TileSpriteIndex: 62
      m_TileMatrixIndex: 0
      m_TileColorIndex: 0
      m_TileObjectToInstantiateIndex: 65535
      m_AllTileFlags: 1073741825
  - first: {x: 11, y: -5, z: 0}
    second:
      serializedVersion: 2
      m_TileIndex: 63
      m_TileSpriteIndex: 63
      m_TileMatrixIndex: 0
      m_TileColorIndex: 0
      m_TileObjectToInstantiateIndex: 65535
      m_AllTileFlags: 1073741825
  - first: {x: 12, y: -5, z: 0}
    second:
      serializedVersion: 2
      m_TileIndex: 64
      m_TileSpriteIndex: 64
      m_TileMatrixIndex: 0
      m_TileColorIndex: 0
      m_TileObjectToInstantiateIndex: 65535
      m_AllTileFlags: 1073741825
  - first: {x: 13, y: -5, z: 0}
    second:
      serializedVersion: 2
      m_TileIndex: 65
      m_TileSpriteIndex: 65
      m_TileMatrixIndex: 0
      m_TileColorIndex: 0
      m_TileObjectToInstantiateIndex: 65535
      m_AllTileFlags: 1073741825
  - first: {x: 14, y: -5, z: 0}
    second:
      serializedVersion: 2
      m_TileIndex: 66
      m_TileSpriteIndex: 66
      m_TileMatrixIndex: 0
      m_TileColorIndex: 0
      m_TileObjectToInstantiateIndex: 65535
      m_AllTileFlags: 1073741825
  - first: {x: 15, y: -5, z: 0}
    second:
      serializedVersion: 2
      m_TileIndex: 67
      m_TileSpriteIndex: 67
      m_TileMatrixIndex: 0
      m_TileColorIndex: 0
      m_TileObjectToInstantiateIndex: 65535
      m_AllTileFlags: 1073741825
  - first: {x: -1, y: -4, z: 0}
    second:
      serializedVersion: 2
      m_TileIndex: 37
      m_TileSpriteIndex: 37
      m_TileMatrixIndex: 0
      m_TileColorIndex: 0
      m_TileObjectToInstantiateIndex: 65535
      m_AllTileFlags: 1073741825
  - first: {x: 0, y: -4, z: 0}
    second:
      serializedVersion: 2
      m_TileIndex: 38
      m_TileSpriteIndex: 38
      m_TileMatrixIndex: 0
      m_TileColorIndex: 0
      m_TileObjectToInstantiateIndex: 65535
      m_AllTileFlags: 1073741825
  - first: {x: 1, y: -4, z: 0}
    second:
      serializedVersion: 2
      m_TileIndex: 39
      m_TileSpriteIndex: 39
      m_TileMatrixIndex: 0
      m_TileColorIndex: 0
      m_TileObjectToInstantiateIndex: 65535
      m_AllTileFlags: 1073741825
  - first: {x: 2, y: -4, z: 0}
    second:
      serializedVersion: 2
      m_TileIndex: 40
      m_TileSpriteIndex: 40
      m_TileMatrixIndex: 0
      m_TileColorIndex: 0
      m_TileObjectToInstantiateIndex: 65535
      m_AllTileFlags: 1073741825
  - first: {x: 3, y: -4, z: 0}
    second:
      serializedVersion: 2
      m_TileIndex: 41
      m_TileSpriteIndex: 41
      m_TileMatrixIndex: 0
      m_TileColorIndex: 0
      m_TileObjectToInstantiateIndex: 65535
      m_AllTileFlags: 1073741825
  - first: {x: 4, y: -4, z: 0}
    second:
      serializedVersion: 2
      m_TileIndex: 42
      m_TileSpriteIndex: 42
      m_TileMatrixIndex: 0
      m_TileColorIndex: 0
      m_TileObjectToInstantiateIndex: 65535
      m_AllTileFlags: 1073741825
  - first: {x: 5, y: -4, z: 0}
    second:
      serializedVersion: 2
      m_TileIndex: 43
      m_TileSpriteIndex: 43
      m_TileMatrixIndex: 0
      m_TileColorIndex: 0
      m_TileObjectToInstantiateIndex: 65535
      m_AllTileFlags: 1073741825
  - first: {x: 6, y: -4, z: 0}
    second:
      serializedVersion: 2
      m_TileIndex: 44
      m_TileSpriteIndex: 44
      m_TileMatrixIndex: 0
      m_TileColorIndex: 0
      m_TileObjectToInstantiateIndex: 65535
      m_AllTileFlags: 1073741825
  - first: {x: 7, y: -4, z: 0}
    second:
      serializedVersion: 2
      m_TileIndex: 45
      m_TileSpriteIndex: 45
      m_TileMatrixIndex: 0
      m_TileColorIndex: 0
      m_TileObjectToInstantiateIndex: 65535
      m_AllTileFlags: 1073741825
  - first: {x: 8, y: -4, z: 0}
    second:
      serializedVersion: 2
      m_TileIndex: 46
      m_TileSpriteIndex: 46
      m_TileMatrixIndex: 0
      m_TileColorIndex: 0
      m_TileObjectToInstantiateIndex: 65535
      m_AllTileFlags: 1073741825
  - first: {x: 10, y: -4, z: 0}
    second:
      serializedVersion: 2
      m_TileIndex: 47
      m_TileSpriteIndex: 47
      m_TileMatrixIndex: 0
      m_TileColorIndex: 0
      m_TileObjectToInstantiateIndex: 65535
      m_AllTileFlags: 1073741825
  - first: {x: 11, y: -4, z: 0}
    second:
      serializedVersion: 2
      m_TileIndex: 48
      m_TileSpriteIndex: 48
      m_TileMatrixIndex: 0
      m_TileColorIndex: 0
      m_TileObjectToInstantiateIndex: 65535
      m_AllTileFlags: 1073741825
  - first: {x: 12, y: -4, z: 0}
    second:
      serializedVersion: 2
      m_TileIndex: 49
      m_TileSpriteIndex: 49
      m_TileMatrixIndex: 0
      m_TileColorIndex: 0
      m_TileObjectToInstantiateIndex: 65535
      m_AllTileFlags: 1073741825
  - first: {x: 13, y: -4, z: 0}
    second:
      serializedVersion: 2
      m_TileIndex: 50
      m_TileSpriteIndex: 50
      m_TileMatrixIndex: 0
      m_TileColorIndex: 0
      m_TileObjectToInstantiateIndex: 65535
      m_AllTileFlags: 1073741825
  - first: {x: 14, y: -4, z: 0}
    second:
      serializedVersion: 2
      m_TileIndex: 51
      m_TileSpriteIndex: 51
      m_TileMatrixIndex: 0
      m_TileColorIndex: 0
      m_TileObjectToInstantiateIndex: 65535
      m_AllTileFlags: 1073741825
  - first: {x: 15, y: -4, z: 0}
    second:
      serializedVersion: 2
      m_TileIndex: 52
      m_TileSpriteIndex: 52
      m_TileMatrixIndex: 0
      m_TileColorIndex: 0
      m_TileObjectToInstantiateIndex: 65535
      m_AllTileFlags: 1073741825
  - first: {x: -1, y: -3, z: 0}
    second:
      serializedVersion: 2
      m_TileIndex: 25
      m_TileSpriteIndex: 25
      m_TileMatrixIndex: 0
      m_TileColorIndex: 0
      m_TileObjectToInstantiateIndex: 65535
      m_AllTileFlags: 1073741825
  - first: {x: 0, y: -3, z: 0}
    second:
      serializedVersion: 2
      m_TileIndex: 26
      m_TileSpriteIndex: 26
      m_TileMatrixIndex: 0
      m_TileColorIndex: 0
      m_TileObjectToInstantiateIndex: 65535
      m_AllTileFlags: 1073741825
  - first: {x: 1, y: -3, z: 0}
    second:
      serializedVersion: 2
      m_TileIndex: 27
      m_TileSpriteIndex: 27
      m_TileMatrixIndex: 0
      m_TileColorIndex: 0
      m_TileObjectToInstantiateIndex: 65535
      m_AllTileFlags: 1073741825
  - first: {x: 2, y: -3, z: 0}
    second:
      serializedVersion: 2
      m_TileIndex: 28
      m_TileSpriteIndex: 28
      m_TileMatrixIndex: 0
      m_TileColorIndex: 0
      m_TileObjectToInstantiateIndex: 65535
      m_AllTileFlags: 1073741825
  - first: {x: 3, y: -3, z: 0}
    second:
      serializedVersion: 2
      m_TileIndex: 29
      m_TileSpriteIndex: 29
      m_TileMatrixIndex: 0
      m_TileColorIndex: 0
      m_TileObjectToInstantiateIndex: 65535
      m_AllTileFlags: 1073741825
  - first: {x: 10, y: -3, z: 0}
    second:
      serializedVersion: 2
      m_TileIndex: 30
      m_TileSpriteIndex: 30
      m_TileMatrixIndex: 0
      m_TileColorIndex: 0
      m_TileObjectToInstantiateIndex: 65535
      m_AllTileFlags: 1073741825
  - first: {x: 11, y: -3, z: 0}
    second:
      serializedVersion: 2
      m_TileIndex: 31
      m_TileSpriteIndex: 31
      m_TileMatrixIndex: 0
      m_TileColorIndex: 0
      m_TileObjectToInstantiateIndex: 65535
      m_AllTileFlags: 1073741825
  - first: {x: 12, y: -3, z: 0}
    second:
      serializedVersion: 2
      m_TileIndex: 32
      m_TileSpriteIndex: 32
      m_TileMatrixIndex: 0
      m_TileColorIndex: 0
      m_TileObjectToInstantiateIndex: 65535
      m_AllTileFlags: 1073741825
  - first: {x: 13, y: -3, z: 0}
    second:
      serializedVersion: 2
      m_TileIndex: 33
      m_TileSpriteIndex: 33
      m_TileMatrixIndex: 0
      m_TileColorIndex: 0
      m_TileObjectToInstantiateIndex: 65535
      m_AllTileFlags: 1073741825
  - first: {x: 14, y: -3, z: 0}
    second:
      serializedVersion: 2
      m_TileIndex: 34
      m_TileSpriteIndex: 34
      m_TileMatrixIndex: 0
      m_TileColorIndex: 0
      m_TileObjectToInstantiateIndex: 65535
      m_AllTileFlags: 1073741825
  - first: {x: 15, y: -3, z: 0}
    second:
      serializedVersion: 2
      m_TileIndex: 35
      m_TileSpriteIndex: 35
      m_TileMatrixIndex: 0
      m_TileColorIndex: 0
      m_TileObjectToInstantiateIndex: 65535
      m_AllTileFlags: 1073741825
  - first: {x: 16, y: -3, z: 0}
    second:
      serializedVersion: 2
      m_TileIndex: 36
      m_TileSpriteIndex: 36
      m_TileMatrixIndex: 0
      m_TileColorIndex: 0
      m_TileObjectToInstantiateIndex: 65535
      m_AllTileFlags: 1073741825
  - first: {x: -1, y: -2, z: 0}
    second:
      serializedVersion: 2
      m_TileIndex: 15
      m_TileSpriteIndex: 15
      m_TileMatrixIndex: 0
      m_TileColorIndex: 0
      m_TileObjectToInstantiateIndex: 65535
      m_AllTileFlags: 1073741825
  - first: {x: 0, y: -2, z: 0}
    second:
      serializedVersion: 2
      m_TileIndex: 16
      m_TileSpriteIndex: 16
      m_TileMatrixIndex: 0
      m_TileColorIndex: 0
      m_TileObjectToInstantiateIndex: 65535
      m_AllTileFlags: 1073741825
  - first: {x: 1, y: -2, z: 0}
    second:
      serializedVersion: 2
      m_TileIndex: 17
      m_TileSpriteIndex: 17
      m_TileMatrixIndex: 0
      m_TileColorIndex: 0
      m_TileObjectToInstantiateIndex: 65535
      m_AllTileFlags: 1073741825
  - first: {x: 10, y: -2, z: 0}
    second:
      serializedVersion: 2
      m_TileIndex: 18
      m_TileSpriteIndex: 18
      m_TileMatrixIndex: 0
      m_TileColorIndex: 0
      m_TileObjectToInstantiateIndex: 65535
      m_AllTileFlags: 1073741825
  - first: {x: 11, y: -2, z: 0}
    second:
      serializedVersion: 2
      m_TileIndex: 19
      m_TileSpriteIndex: 19
      m_TileMatrixIndex: 0
      m_TileColorIndex: 0
      m_TileObjectToInstantiateIndex: 65535
      m_AllTileFlags: 1073741825
  - first: {x: 12, y: -2, z: 0}
    second:
      serializedVersion: 2
      m_TileIndex: 20
      m_TileSpriteIndex: 20
      m_TileMatrixIndex: 0
      m_TileColorIndex: 0
      m_TileObjectToInstantiateIndex: 65535
      m_AllTileFlags: 1073741825
  - first: {x: 13, y: -2, z: 0}
    second:
      serializedVersion: 2
      m_TileIndex: 21
      m_TileSpriteIndex: 21
      m_TileMatrixIndex: 0
      m_TileColorIndex: 0
      m_TileObjectToInstantiateIndex: 65535
      m_AllTileFlags: 1073741825
  - first: {x: 14, y: -2, z: 0}
    second:
      serializedVersion: 2
      m_TileIndex: 22
      m_TileSpriteIndex: 22
      m_TileMatrixIndex: 0
      m_TileColorIndex: 0
      m_TileObjectToInstantiateIndex: 65535
      m_AllTileFlags: 1073741825
  - first: {x: 15, y: -2, z: 0}
    second:
      serializedVersion: 2
      m_TileIndex: 23
      m_TileSpriteIndex: 23
      m_TileMatrixIndex: 0
      m_TileColorIndex: 0
      m_TileObjectToInstantiateIndex: 65535
      m_AllTileFlags: 1073741825
  - first: {x: 16, y: -2, z: 0}
    second:
      serializedVersion: 2
      m_TileIndex: 24
      m_TileSpriteIndex: 24
      m_TileMatrixIndex: 0
      m_TileColorIndex: 0
      m_TileObjectToInstantiateIndex: 65535
      m_AllTileFlags: 1073741825
  - first: {x: 11, y: -1, z: 0}
    second:
      serializedVersion: 2
      m_TileIndex: 10
      m_TileSpriteIndex: 10
      m_TileMatrixIndex: 0
      m_TileColorIndex: 0
      m_TileObjectToInstantiateIndex: 65535
      m_AllTileFlags: 1073741825
  - first: {x: 12, y: -1, z: 0}
    second:
      serializedVersion: 2
      m_TileIndex: 11
      m_TileSpriteIndex: 11
      m_TileMatrixIndex: 0
      m_TileColorIndex: 0
      m_TileObjectToInstantiateIndex: 65535
      m_AllTileFlags: 1073741825
  - first: {x: 13, y: -1, z: 0}
    second:
      serializedVersion: 2
      m_TileIndex: 12
      m_TileSpriteIndex: 12
      m_TileMatrixIndex: 0
      m_TileColorIndex: 0
      m_TileObjectToInstantiateIndex: 65535
      m_AllTileFlags: 1073741825
  - first: {x: 14, y: -1, z: 0}
    second:
      serializedVersion: 2
      m_TileIndex: 13
      m_TileSpriteIndex: 13
      m_TileMatrixIndex: 0
      m_TileColorIndex: 0
      m_TileObjectToInstantiateIndex: 65535
      m_AllTileFlags: 1073741825
  - first: {x: 15, y: -1, z: 0}
    second:
      serializedVersion: 2
      m_TileIndex: 14
      m_TileSpriteIndex: 14
      m_TileMatrixIndex: 0
      m_TileColorIndex: 0
      m_TileObjectToInstantiateIndex: 65535
      m_AllTileFlags: 1073741825
  - first: {x: -1, y: 0, z: 0}
    second:
      serializedVersion: 2
      m_TileIndex: 0
      m_TileSpriteIndex: 0
      m_TileMatrixIndex: 0
      m_TileColorIndex: 0
      m_TileObjectToInstantiateIndex: 65535
      m_AllTileFlags: 1073741825
  - first: {x: 0, y: 0, z: 0}
    second:
      serializedVersion: 2
      m_TileIndex: 1
      m_TileSpriteIndex: 1
      m_TileMatrixIndex: 0
      m_TileColorIndex: 0
      m_TileObjectToInstantiateIndex: 65535
      m_AllTileFlags: 1073741825
  - first: {x: 1, y: 0, z: 0}
    second:
      serializedVersion: 2
      m_TileIndex: 2
      m_TileSpriteIndex: 2
      m_TileMatrixIndex: 0
      m_TileColorIndex: 0
      m_TileObjectToInstantiateIndex: 65535
      m_AllTileFlags: 1073741825
  - first: {x: 2, y: 0, z: 0}
    second:
      serializedVersion: 2
      m_TileIndex: 3
      m_TileSpriteIndex: 3
      m_TileMatrixIndex: 0
      m_TileColorIndex: 0
      m_TileObjectToInstantiateIndex: 65535
      m_AllTileFlags: 1073741825
  - first: {x: 3, y: 0, z: 0}
    second:
      serializedVersion: 2
      m_TileIndex: 4
      m_TileSpriteIndex: 4
      m_TileMatrixIndex: 0
      m_TileColorIndex: 0
      m_TileObjectToInstantiateIndex: 65535
      m_AllTileFlags: 1073741825
  - first: {x: 4, y: 0, z: 0}
    second:
      serializedVersion: 2
      m_TileIndex: 5
      m_TileSpriteIndex: 5
      m_TileMatrixIndex: 0
      m_TileColorIndex: 0
      m_TileObjectToInstantiateIndex: 65535
      m_AllTileFlags: 1073741825
  - first: {x: 5, y: 0, z: 0}
    second:
      serializedVersion: 2
      m_TileIndex: 6
      m_TileSpriteIndex: 6
      m_TileMatrixIndex: 0
      m_TileColorIndex: 0
      m_TileObjectToInstantiateIndex: 65535
      m_AllTileFlags: 1073741825
  - first: {x: 12, y: 0, z: 0}
    second:
      serializedVersion: 2
      m_TileIndex: 7
      m_TileSpriteIndex: 7
      m_TileMatrixIndex: 0
      m_TileColorIndex: 0
      m_TileObjectToInstantiateIndex: 65535
      m_AllTileFlags: 1073741825
  - first: {x: 13, y: 0, z: 0}
    second:
      serializedVersion: 2
      m_TileIndex: 8
      m_TileSpriteIndex: 8
      m_TileMatrixIndex: 0
      m_TileColorIndex: 0
      m_TileObjectToInstantiateIndex: 65535
      m_AllTileFlags: 1073741825
  - first: {x: 14, y: 0, z: 0}
    second:
      serializedVersion: 2
      m_TileIndex: 9
      m_TileSpriteIndex: 9
      m_TileMatrixIndex: 0
      m_TileColorIndex: 0
      m_TileObjectToInstantiateIndex: 65535
      m_AllTileFlags: 1073741825
  m_AnimatedTiles: {}
  m_TileAssetArray:
  - m_RefCount: 1
    m_Data: {fileID: 11400000, guid: 1d3d5ce5ef8ceb44ca52ed4baf705c40, type: 2}
  - m_RefCount: 1
    m_Data: {fileID: 11400000, guid: 647fa9aafdce07944aa0409a56ab9f11, type: 2}
  - m_RefCount: 1
    m_Data: {fileID: 11400000, guid: c1504b99a961a5f4d9cd0e6a8ea7d459, type: 2}
  - m_RefCount: 1
    m_Data: {fileID: 11400000, guid: 4a65b45d36665954d8d237cafe9fcf47, type: 2}
  - m_RefCount: 1
    m_Data: {fileID: 11400000, guid: 6b5443b4bb0548548992002a86e16ed0, type: 2}
  - m_RefCount: 1
    m_Data: {fileID: 11400000, guid: ee3bde420f7337342b4e313124202b2a, type: 2}
  - m_RefCount: 1
    m_Data: {fileID: 11400000, guid: b55541e7dd8707b45938a615b77b2b3d, type: 2}
  - m_RefCount: 1
    m_Data: {fileID: 11400000, guid: 9267e5505a74c93408caaa7a4e4bf025, type: 2}
  - m_RefCount: 1
    m_Data: {fileID: 11400000, guid: 1dff119be4ed69048b4b832fb6477e99, type: 2}
  - m_RefCount: 1
    m_Data: {fileID: 11400000, guid: 2e8658e5838b07d489ba4ae26858d4b7, type: 2}
  - m_RefCount: 1
    m_Data: {fileID: 11400000, guid: 6f6a21bbf17cd724a93f2ea9b5840fce, type: 2}
  - m_RefCount: 1
    m_Data: {fileID: 11400000, guid: 03d54a41426bf2645a7d4f054a51a491, type: 2}
  - m_RefCount: 1
    m_Data: {fileID: 11400000, guid: afd107b5aca2b7441b292abe62272cb2, type: 2}
  - m_RefCount: 1
    m_Data: {fileID: 11400000, guid: a485d6cdcd4387c468dca6e97d151412, type: 2}
  - m_RefCount: 1
    m_Data: {fileID: 11400000, guid: a682622951a27604187a85bbe90d451b, type: 2}
  - m_RefCount: 1
    m_Data: {fileID: 11400000, guid: ad2ce6a2ae338b849b931ec58f898106, type: 2}
  - m_RefCount: 1
    m_Data: {fileID: 11400000, guid: 0f40c81c9df26a74ca5ace42d6e74e8a, type: 2}
  - m_RefCount: 1
    m_Data: {fileID: 11400000, guid: 8c4699781bc89084f8430225be3db1ad, type: 2}
  - m_RefCount: 1
    m_Data: {fileID: 11400000, guid: d3cba5c116bd4a44d96c83a12d55218f, type: 2}
  - m_RefCount: 1
    m_Data: {fileID: 11400000, guid: 2e5020648365ff64e8e536d09dcbc897, type: 2}
  - m_RefCount: 1
    m_Data: {fileID: 11400000, guid: 2cc203718c577ad44aba4cae6038d3a6, type: 2}
  - m_RefCount: 1
    m_Data: {fileID: 11400000, guid: 342645c5a389dcc459f49280ece38fa4, type: 2}
  - m_RefCount: 1
    m_Data: {fileID: 11400000, guid: 26cfbf62524a8f446a7b96caa72b127b, type: 2}
  - m_RefCount: 1
    m_Data: {fileID: 11400000, guid: 152bce03f81330447a0fe09d5c405452, type: 2}
  - m_RefCount: 1
    m_Data: {fileID: 11400000, guid: b77a1103f41a0bf4cbec62294e3c0c90, type: 2}
  - m_RefCount: 1
    m_Data: {fileID: 11400000, guid: db993340b6c91fb448fa06d82605bdaf, type: 2}
  - m_RefCount: 1
    m_Data: {fileID: 11400000, guid: cbff0e1a6ad28094ba897778d4607e8d, type: 2}
  - m_RefCount: 1
    m_Data: {fileID: 11400000, guid: 18221a47f0df74544916e990f866e8a0, type: 2}
  - m_RefCount: 1
    m_Data: {fileID: 11400000, guid: 1045024713c2210478097ee9953c29cf, type: 2}
  - m_RefCount: 1
    m_Data: {fileID: 11400000, guid: 6cea1a1862669f741a0f247d06e5292c, type: 2}
  - m_RefCount: 1
    m_Data: {fileID: 11400000, guid: 93a2f116da71dd440b3d71b2002e76b2, type: 2}
  - m_RefCount: 1
    m_Data: {fileID: 11400000, guid: 35884d4192ac7ea49abbbe943172f983, type: 2}
  - m_RefCount: 1
    m_Data: {fileID: 11400000, guid: 1a2167edd3f919f4fb9938516649369e, type: 2}
  - m_RefCount: 1
    m_Data: {fileID: 11400000, guid: b6b077d8fc19f354bbf654b9018aaa94, type: 2}
  - m_RefCount: 1
    m_Data: {fileID: 11400000, guid: 991cb2878ba0af041a82f1bf9296fcef, type: 2}
  - m_RefCount: 1
    m_Data: {fileID: 11400000, guid: 0340e0324a2655646a7f67f1c2edd659, type: 2}
  - m_RefCount: 1
    m_Data: {fileID: 11400000, guid: ef030d727c204fe4a80248ff8ff956b2, type: 2}
  - m_RefCount: 1
    m_Data: {fileID: 11400000, guid: 77db0bfcce691254db8a6e15968db754, type: 2}
  - m_RefCount: 1
    m_Data: {fileID: 11400000, guid: 4314cd409308b544d99b39a7fa7cffac, type: 2}
  - m_RefCount: 1
    m_Data: {fileID: 11400000, guid: 69a9049abc5909b49947415669701475, type: 2}
  - m_RefCount: 1
    m_Data: {fileID: 11400000, guid: edccb6b87fe80474d9147015e3026b83, type: 2}
  - m_RefCount: 1
    m_Data: {fileID: 11400000, guid: 2a93ed925617b2340ac5493a983d70f3, type: 2}
  - m_RefCount: 1
    m_Data: {fileID: 11400000, guid: d50bb70487c661d43be5503af506a97e, type: 2}
  - m_RefCount: 1
    m_Data: {fileID: 11400000, guid: dcca2f2bf152c764c89d31746a4576fb, type: 2}
  - m_RefCount: 1
    m_Data: {fileID: 11400000, guid: a70e32ca4493c64419f2c2557c1f6d60, type: 2}
  - m_RefCount: 1
    m_Data: {fileID: 11400000, guid: f4cc228ed2d3d994d884830aeb0b1bb3, type: 2}
  - m_RefCount: 1
    m_Data: {fileID: 11400000, guid: 0386b178d8353fd48bbcc0984212956e, type: 2}
  - m_RefCount: 1
    m_Data: {fileID: 11400000, guid: e4900000fa0d26340b0c55c843c7ccd3, type: 2}
  - m_RefCount: 1
    m_Data: {fileID: 11400000, guid: 8e82006f3fc75814a9d4ff3e99863aa5, type: 2}
  - m_RefCount: 1
    m_Data: {fileID: 11400000, guid: 21fc70cdc1ff4214fa2343c6f3858b2c, type: 2}
  - m_RefCount: 1
    m_Data: {fileID: 11400000, guid: 4ba71516b140bcd429bac6c61c56bf26, type: 2}
  - m_RefCount: 1
    m_Data: {fileID: 11400000, guid: b8f14d142ffe8134f9c09282001b8ab0, type: 2}
  - m_RefCount: 1
    m_Data: {fileID: 11400000, guid: 6b8e0213172a5b543bf7e01aa5ed0cc3, type: 2}
  - m_RefCount: 1
    m_Data: {fileID: 11400000, guid: a0ecfc85993fe364a8c2864d9b868994, type: 2}
  - m_RefCount: 1
    m_Data: {fileID: 11400000, guid: 4eea3771a535ece489819ba3fd3f50d8, type: 2}
  - m_RefCount: 1
    m_Data: {fileID: 11400000, guid: 3499d3fbb1da6db44a279d8a84c27079, type: 2}
  - m_RefCount: 1
    m_Data: {fileID: 11400000, guid: 2b1cdfda6a6f69a4d9d01f61d4b13a7c, type: 2}
  - m_RefCount: 1
    m_Data: {fileID: 11400000, guid: d7c4226b5ef71964db7e5eea5f805c45, type: 2}
  - m_RefCount: 1
    m_Data: {fileID: 11400000, guid: 4532fe9419ebdbb4d9a82cc059bbe5e4, type: 2}
  - m_RefCount: 1
    m_Data: {fileID: 11400000, guid: b37380b1c030dd64391b5f8d4b16ec47, type: 2}
  - m_RefCount: 1
    m_Data: {fileID: 11400000, guid: 89d3e07d33eb57d4aaced4d9b858d361, type: 2}
  - m_RefCount: 1
    m_Data: {fileID: 11400000, guid: 4b5b55fec603ef94fb1cee697d304925, type: 2}
  - m_RefCount: 1
    m_Data: {fileID: 11400000, guid: 1632708427b949d4dbab9e1756507748, type: 2}
  - m_RefCount: 1
    m_Data: {fileID: 11400000, guid: 66710052a8b373442b4439ea193751c6, type: 2}
  - m_RefCount: 1
    m_Data: {fileID: 11400000, guid: 4a4d6a88c4c0e5f4f8cb2f2fe6d3da2c, type: 2}
  - m_RefCount: 1
    m_Data: {fileID: 11400000, guid: 54f3a17d6db194443b0336abdfd162fb, type: 2}
  - m_RefCount: 1
    m_Data: {fileID: 11400000, guid: 3ab3e7741c7ed7545aaa4591f3827e02, type: 2}
  - m_RefCount: 1
    m_Data: {fileID: 11400000, guid: 2f497680939fb384ca833fff9b642311, type: 2}
  - m_RefCount: 1
    m_Data: {fileID: 11400000, guid: 006a7fd41fb1b354b8fc6a0a72cac65c, type: 2}
  - m_RefCount: 1
    m_Data: {fileID: 11400000, guid: 312b3b06bd9a20943b8e9e9c0fa82978, type: 2}
  - m_RefCount: 1
    m_Data: {fileID: 11400000, guid: 6dd4888842964be4c9f58cfe12449791, type: 2}
  - m_RefCount: 1
    m_Data: {fileID: 11400000, guid: 48afd58679e2ac547adf7927badc8694, type: 2}
  - m_RefCount: 1
    m_Data: {fileID: 11400000, guid: b8dea17a701119647985d4c5962d75b9, type: 2}
  - m_RefCount: 1
    m_Data: {fileID: 11400000, guid: 13218988bf456964685a0995bbc839cf, type: 2}
  - m_RefCount: 1
    m_Data: {fileID: 11400000, guid: 0485d9706bf9ca34d89ee018f10dc438, type: 2}
  - m_RefCount: 1
    m_Data: {fileID: 11400000, guid: cf7149c359e85a549ad0e4dbcba43e21, type: 2}
  - m_RefCount: 1
    m_Data: {fileID: 11400000, guid: 3ce323147b9fe2f42a6e83ad4ea89c06, type: 2}
  - m_RefCount: 1
    m_Data: {fileID: 11400000, guid: bd4017128fa7aae468cc56573ffe2624, type: 2}
  - m_RefCount: 1
    m_Data: {fileID: 11400000, guid: 0c6118aab5d07e14b8fb9ceaf05fcab8, type: 2}
  - m_RefCount: 1
    m_Data: {fileID: 11400000, guid: 26fa0381fa371a645982a1ec55333ff5, type: 2}
  - m_RefCount: 1
    m_Data: {fileID: 11400000, guid: fdf6682510743f34abd23d11c901a3b4, type: 2}
  - m_RefCount: 1
    m_Data: {fileID: 11400000, guid: 362fa03bf59e8b74ab75c715f444f18a, type: 2}
  - m_RefCount: 1
    m_Data: {fileID: 11400000, guid: 1e23f61f1b638cb409dc71ed131ca081, type: 2}
  - m_RefCount: 1
    m_Data: {fileID: 11400000, guid: 22fa23169f6f6484c805fbb5d3087830, type: 2}
  - m_RefCount: 1
    m_Data: {fileID: 11400000, guid: 91134d2623aa8544e987462a9007759a, type: 2}
  - m_RefCount: 1
    m_Data: {fileID: 11400000, guid: b3547a4e5f5b9f5418985863ae9f80f2, type: 2}
  - m_RefCount: 1
    m_Data: {fileID: 11400000, guid: 10a5ceabba1b07f459b00a01212ee10b, type: 2}
  - m_RefCount: 1
    m_Data: {fileID: 11400000, guid: 05a427e42204eb54e9c32d4db5aed1a5, type: 2}
  - m_RefCount: 1
    m_Data: {fileID: 11400000, guid: 0a006df4508bb644fbb3fb6b2846bee5, type: 2}
  - m_RefCount: 1
    m_Data: {fileID: 11400000, guid: fa22604a4ffbd7b4e895fded2e0cecec, type: 2}
  - m_RefCount: 1
    m_Data: {fileID: 11400000, guid: 3471c75e028d2d141a8a6611ca8d081f, type: 2}
  - m_RefCount: 1
    m_Data: {fileID: 11400000, guid: 1d63405d48a94e540b7a745085c384d0, type: 2}
  - m_RefCount: 1
    m_Data: {fileID: 11400000, guid: ed5779231d8ebf74f8a0f31bd8a5e0d2, type: 2}
  - m_RefCount: 1
    m_Data: {fileID: 11400000, guid: 36bc14f4650e0614d87164f82e86f9a7, type: 2}
  - m_RefCount: 1
    m_Data: {fileID: 11400000, guid: 61e4044463c87824d8826763fd827a9a, type: 2}
  - m_RefCount: 1
    m_Data: {fileID: 11400000, guid: e00fed8f2530d3c41883576e535759bf, type: 2}
  - m_RefCount: 1
    m_Data: {fileID: 11400000, guid: 78b08b1e563a7f1419292d7c3f61c94d, type: 2}
  - m_RefCount: 1
    m_Data: {fileID: 11400000, guid: 771b2d2a0af2af14392ace6cb4c4b540, type: 2}
  - m_RefCount: 1
    m_Data: {fileID: 11400000, guid: 1812a965cfe897148970434d49666d67, type: 2}
  - m_RefCount: 1
    m_Data: {fileID: 11400000, guid: 901f85c892945d64c8a4db5c5318a1a8, type: 2}
  - m_RefCount: 1
    m_Data: {fileID: 11400000, guid: ac77ca0b1b713df469b078b9782970fd, type: 2}
  - m_RefCount: 1
    m_Data: {fileID: 11400000, guid: 14f331419aebe904a963a15c5d5c8b44, type: 2}
  - m_RefCount: 1
    m_Data: {fileID: 11400000, guid: 01f6e90c52077df4e908db36b9417142, type: 2}
  - m_RefCount: 1
    m_Data: {fileID: 11400000, guid: 51ce3ee1d1c8c3c4f8305ed041ea051d, type: 2}
  - m_RefCount: 1
    m_Data: {fileID: 11400000, guid: 201d8e63b9d485b44b895a51d9b1c993, type: 2}
  - m_RefCount: 1
    m_Data: {fileID: 11400000, guid: 511e280d0b16a9b42961934a5a3bab7d, type: 2}
  - m_RefCount: 1
    m_Data: {fileID: 11400000, guid: 428bd2e665616764782b041bd8ea69c7, type: 2}
  - m_RefCount: 1
    m_Data: {fileID: 11400000, guid: af8cfc1483bbac64c8bc84b5155af8e0, type: 2}
  - m_RefCount: 1
    m_Data: {fileID: 11400000, guid: 353167aaad93685409da849ab4b72ca8, type: 2}
  - m_RefCount: 1
    m_Data: {fileID: 11400000, guid: 9aad61ec62bac1f4db4a7452458e1eab, type: 2}
  - m_RefCount: 1
    m_Data: {fileID: 11400000, guid: 8c58e3ecaa4be054d9bf63103822e88c, type: 2}
  - m_RefCount: 1
    m_Data: {fileID: 11400000, guid: 8f19c7c85e024bb4aba5e4099b613b6d, type: 2}
  - m_RefCount: 1
    m_Data: {fileID: 11400000, guid: 1d19ce2177e39eb449f74ba0e50edf92, type: 2}
  - m_RefCount: 1
    m_Data: {fileID: 11400000, guid: 7dc215def5ece254d951dbac92c6dcc5, type: 2}
  - m_RefCount: 1
    m_Data: {fileID: 11400000, guid: 81424f17b25bc464792b3925e3d7b04d, type: 2}
  - m_RefCount: 1
    m_Data: {fileID: 11400000, guid: 531beb8bbffc2cc47b97f0a3a17d74d5, type: 2}
  - m_RefCount: 1
    m_Data: {fileID: 11400000, guid: 460a7d7ea7381af49bf9f878f32088b3, type: 2}
  - m_RefCount: 1
    m_Data: {fileID: 11400000, guid: f8b8c787a02221843b6ea3e4c1593fa7, type: 2}
  - m_RefCount: 1
    m_Data: {fileID: 11400000, guid: f99df78cdcf91754f9a125060d13d1ae, type: 2}
  - m_RefCount: 1
    m_Data: {fileID: 11400000, guid: 4187706f69e1622479436d84b641e475, type: 2}
  - m_RefCount: 1
    m_Data: {fileID: 11400000, guid: 9fccaef13e5d23d4bbede6410ef0d660, type: 2}
  - m_RefCount: 1
    m_Data: {fileID: 11400000, guid: 66ab2381af12b964884b373a1f7bb9ff, type: 2}
  - m_RefCount: 1
    m_Data: {fileID: 11400000, guid: c8bad72922a7a7a47930e5841aa73822, type: 2}
  - m_RefCount: 1
    m_Data: {fileID: 11400000, guid: 86e917612ea9b224d84ac0d8a90a4c3c, type: 2}
  - m_RefCount: 1
    m_Data: {fileID: 11400000, guid: 889eabca9a8f1ac40a5d43c60c8577ec, type: 2}
  - m_RefCount: 1
    m_Data: {fileID: 11400000, guid: c1de1f04c1e76d64f957cee8b5fb2e48, type: 2}
  - m_RefCount: 1
    m_Data: {fileID: 11400000, guid: aeb0f15eb0104774f99ed63991ca4d97, type: 2}
  - m_RefCount: 1
    m_Data: {fileID: 11400000, guid: 766c60915421ac94b91f28518b0e3e90, type: 2}
  - m_RefCount: 1
    m_Data: {fileID: 11400000, guid: 673afc86c8abdaf4982e515f4e39ee85, type: 2}
  - m_RefCount: 1
    m_Data: {fileID: 11400000, guid: a5b0140a9054d7a409ffd3e406f355a6, type: 2}
  - m_RefCount: 1
    m_Data: {fileID: 11400000, guid: 3e2c1709bd52f5d498ea3679d46c379d, type: 2}
  - m_RefCount: 1
    m_Data: {fileID: 11400000, guid: 62332d2158463d1409e89c67bc2daf5b, type: 2}
  - m_RefCount: 1
    m_Data: {fileID: 11400000, guid: 8f8a0b3e45aa86b4bb7ff5bb24a5a2a1, type: 2}
  - m_RefCount: 1
    m_Data: {fileID: 11400000, guid: 9a07203627569404c95938e0f3d62ddf, type: 2}
  - m_RefCount: 1
    m_Data: {fileID: 11400000, guid: 5a2ee60b8c5f08542949024391dcb3d6, type: 2}
  - m_RefCount: 1
    m_Data: {fileID: 11400000, guid: 389682ff72f77814c972573219cb72ca, type: 2}
  - m_RefCount: 1
    m_Data: {fileID: 11400000, guid: 7d4a59fd0fb9a85418d01eaea6ffede6, type: 2}
  - m_RefCount: 1
    m_Data: {fileID: 11400000, guid: 9becd4f8b47e9804394ba8a035ff42df, type: 2}
  - m_RefCount: 1
    m_Data: {fileID: 11400000, guid: a7d576eafa9d4e54daecf93268cd7557, type: 2}
  m_TileSpriteArray:
  - m_RefCount: 1
    m_Data: {fileID: 5663061954668274717, guid: 1fbb39a7834b7e745b583c727f0180a6,
      type: 3}
  - m_RefCount: 1
    m_Data: {fileID: 6007627129536956325, guid: 1fbb39a7834b7e745b583c727f0180a6,
      type: 3}
  - m_RefCount: 1
    m_Data: {fileID: -7486092956772349302, guid: 1fbb39a7834b7e745b583c727f0180a6,
      type: 3}
  - m_RefCount: 1
    m_Data: {fileID: -3627264120405484348, guid: 1fbb39a7834b7e745b583c727f0180a6,
      type: 3}
  - m_RefCount: 1
    m_Data: {fileID: -4815885190406460031, guid: 1fbb39a7834b7e745b583c727f0180a6,
      type: 3}
  - m_RefCount: 1
    m_Data: {fileID: 7477116942032994148, guid: 1fbb39a7834b7e745b583c727f0180a6,
      type: 3}
  - m_RefCount: 1
    m_Data: {fileID: -396035294860175646, guid: 1fbb39a7834b7e745b583c727f0180a6,
      type: 3}
  - m_RefCount: 1
    m_Data: {fileID: 8233071653059976297, guid: 1fbb39a7834b7e745b583c727f0180a6,
      type: 3}
  - m_RefCount: 1
    m_Data: {fileID: -7775419718026629507, guid: 1fbb39a7834b7e745b583c727f0180a6,
      type: 3}
  - m_RefCount: 1
    m_Data: {fileID: -781294158744790408, guid: 1fbb39a7834b7e745b583c727f0180a6,
      type: 3}
  - m_RefCount: 1
    m_Data: {fileID: 9061651696941551919, guid: 1fbb39a7834b7e745b583c727f0180a6,
      type: 3}
  - m_RefCount: 1
    m_Data: {fileID: -6985117363303071740, guid: 1fbb39a7834b7e745b583c727f0180a6,
      type: 3}
  - m_RefCount: 1
    m_Data: {fileID: 8642771837104280003, guid: 1fbb39a7834b7e745b583c727f0180a6,
      type: 3}
  - m_RefCount: 1
    m_Data: {fileID: -1762573714345474896, guid: 1fbb39a7834b7e745b583c727f0180a6,
      type: 3}
  - m_RefCount: 1
    m_Data: {fileID: 11442893378838041, guid: 1fbb39a7834b7e745b583c727f0180a6, type: 3}
  - m_RefCount: 1
    m_Data: {fileID: -317771678647371661, guid: 1fbb39a7834b7e745b583c727f0180a6,
      type: 3}
  - m_RefCount: 1
    m_Data: {fileID: -2426843357703420916, guid: 1fbb39a7834b7e745b583c727f0180a6,
      type: 3}
  - m_RefCount: 1
    m_Data: {fileID: -3642208251427772964, guid: 1fbb39a7834b7e745b583c727f0180a6,
      type: 3}
  - m_RefCount: 1
    m_Data: {fileID: 3985221016008397036, guid: 1fbb39a7834b7e745b583c727f0180a6,
      type: 3}
  - m_RefCount: 1
    m_Data: {fileID: 5778961287088506303, guid: 1fbb39a7834b7e745b583c727f0180a6,
      type: 3}
  - m_RefCount: 1
    m_Data: {fileID: 8758155216525550727, guid: 1fbb39a7834b7e745b583c727f0180a6,
      type: 3}
  - m_RefCount: 1
    m_Data: {fileID: 6116080786932476827, guid: 1fbb39a7834b7e745b583c727f0180a6,
      type: 3}
  - m_RefCount: 1
    m_Data: {fileID: -1385786070971223102, guid: 1fbb39a7834b7e745b583c727f0180a6,
      type: 3}
  - m_RefCount: 1
    m_Data: {fileID: -538331831730588137, guid: 1fbb39a7834b7e745b583c727f0180a6,
      type: 3}
  - m_RefCount: 1
    m_Data: {fileID: -6923900727490736670, guid: 1fbb39a7834b7e745b583c727f0180a6,
      type: 3}
  - m_RefCount: 1
    m_Data: {fileID: 5043307788359985916, guid: 1fbb39a7834b7e745b583c727f0180a6,
      type: 3}
  - m_RefCount: 1
    m_Data: {fileID: -5587653796134901919, guid: 1fbb39a7834b7e745b583c727f0180a6,
      type: 3}
  - m_RefCount: 1
    m_Data: {fileID: -4272949958406870782, guid: 1fbb39a7834b7e745b583c727f0180a6,
      type: 3}
  - m_RefCount: 1
    m_Data: {fileID: -4827537604736492380, guid: 1fbb39a7834b7e745b583c727f0180a6,
      type: 3}
  - m_RefCount: 1
    m_Data: {fileID: 4021183171127385890, guid: 1fbb39a7834b7e745b583c727f0180a6,
      type: 3}
  - m_RefCount: 1
    m_Data: {fileID: -7967309640338825673, guid: 1fbb39a7834b7e745b583c727f0180a6,
      type: 3}
  - m_RefCount: 1
    m_Data: {fileID: 1237908169197521079, guid: 1fbb39a7834b7e745b583c727f0180a6,
      type: 3}
  - m_RefCount: 1
    m_Data: {fileID: 5018706250341604807, guid: 1fbb39a7834b7e745b583c727f0180a6,
      type: 3}
  - m_RefCount: 1
    m_Data: {fileID: -6468910726198660926, guid: 1fbb39a7834b7e745b583c727f0180a6,
      type: 3}
  - m_RefCount: 1
    m_Data: {fileID: -6157781805458569218, guid: 1fbb39a7834b7e745b583c727f0180a6,
      type: 3}
  - m_RefCount: 1
    m_Data: {fileID: 3048538982666575687, guid: 1fbb39a7834b7e745b583c727f0180a6,
      type: 3}
  - m_RefCount: 1
    m_Data: {fileID: -1518774645772049220, guid: 1fbb39a7834b7e745b583c727f0180a6,
      type: 3}
  - m_RefCount: 1
    m_Data: {fileID: -3697150339598545061, guid: 1fbb39a7834b7e745b583c727f0180a6,
      type: 3}
  - m_RefCount: 1
    m_Data: {fileID: -7131273655155896711, guid: 1fbb39a7834b7e745b583c727f0180a6,
      type: 3}
  - m_RefCount: 1
    m_Data: {fileID: 8621815960616643281, guid: 1fbb39a7834b7e745b583c727f0180a6,
      type: 3}
  - m_RefCount: 1
    m_Data: {fileID: -6205172343615221245, guid: 1fbb39a7834b7e745b583c727f0180a6,
      type: 3}
  - m_RefCount: 1
    m_Data: {fileID: 7654806567737475841, guid: 1fbb39a7834b7e745b583c727f0180a6,
      type: 3}
  - m_RefCount: 1
    m_Data: {fileID: -1702772467812443111, guid: 1fbb39a7834b7e745b583c727f0180a6,
      type: 3}
  - m_RefCount: 1
    m_Data: {fileID: 576860350140093190, guid: 1fbb39a7834b7e745b583c727f0180a6, type: 3}
  - m_RefCount: 1
    m_Data: {fileID: 5547708042039842948, guid: 1fbb39a7834b7e745b583c727f0180a6,
      type: 3}
  - m_RefCount: 1
    m_Data: {fileID: -6017339223957375553, guid: 1fbb39a7834b7e745b583c727f0180a6,
      type: 3}
  - m_RefCount: 1
    m_Data: {fileID: -4116040823106012581, guid: 1fbb39a7834b7e745b583c727f0180a6,
      type: 3}
  - m_RefCount: 1
    m_Data: {fileID: 6732870910531023, guid: 1fbb39a7834b7e745b583c727f0180a6, type: 3}
  - m_RefCount: 1
    m_Data: {fileID: -6831599063569703212, guid: 1fbb39a7834b7e745b583c727f0180a6,
      type: 3}
  - m_RefCount: 1
    m_Data: {fileID: -5016527918528981960, guid: 1fbb39a7834b7e745b583c727f0180a6,
      type: 3}
  - m_RefCount: 1
    m_Data: {fileID: 3885819281616729284, guid: 1fbb39a7834b7e745b583c727f0180a6,
      type: 3}
  - m_RefCount: 1
    m_Data: {fileID: 9192141375248400463, guid: 1fbb39a7834b7e745b583c727f0180a6,
      type: 3}
  - m_RefCount: 1
    m_Data: {fileID: 293392773991598977, guid: 1fbb39a7834b7e745b583c727f0180a6, type: 3}
  - m_RefCount: 1
    m_Data: {fileID: -1978880106863730396, guid: 1fbb39a7834b7e745b583c727f0180a6,
      type: 3}
  - m_RefCount: 1
    m_Data: {fileID: 2815510966112240897, guid: 1fbb39a7834b7e745b583c727f0180a6,
      type: 3}
  - m_RefCount: 1
    m_Data: {fileID: 3461855256792236426, guid: 1fbb39a7834b7e745b583c727f0180a6,
      type: 3}
  - m_RefCount: 1
    m_Data: {fileID: -4909924010071155561, guid: 1fbb39a7834b7e745b583c727f0180a6,
      type: 3}
  - m_RefCount: 1
    m_Data: {fileID: -6748938332277025590, guid: 1fbb39a7834b7e745b583c727f0180a6,
      type: 3}
  - m_RefCount: 1
    m_Data: {fileID: 2177024245305386223, guid: 1fbb39a7834b7e745b583c727f0180a6,
      type: 3}
  - m_RefCount: 1
    m_Data: {fileID: 1510392478064077718, guid: 1fbb39a7834b7e745b583c727f0180a6,
      type: 3}
  - m_RefCount: 1
    m_Data: {fileID: -5726643437316625391, guid: 1fbb39a7834b7e745b583c727f0180a6,
      type: 3}
  - m_RefCount: 1
    m_Data: {fileID: 5224892034047083157, guid: 1fbb39a7834b7e745b583c727f0180a6,
      type: 3}
  - m_RefCount: 1
    m_Data: {fileID: 1053245576194407766, guid: 1fbb39a7834b7e745b583c727f0180a6,
      type: 3}
  - m_RefCount: 1
    m_Data: {fileID: 1077660200836561826, guid: 1fbb39a7834b7e745b583c727f0180a6,
      type: 3}
  - m_RefCount: 1
    m_Data: {fileID: -5265849548139384413, guid: 1fbb39a7834b7e745b583c727f0180a6,
      type: 3}
  - m_RefCount: 1
    m_Data: {fileID: 6418657867545673408, guid: 1fbb39a7834b7e745b583c727f0180a6,
      type: 3}
  - m_RefCount: 1
    m_Data: {fileID: 6264988462522759893, guid: 1fbb39a7834b7e745b583c727f0180a6,
      type: 3}
  - m_RefCount: 1
    m_Data: {fileID: 2204049225861295520, guid: 1fbb39a7834b7e745b583c727f0180a6,
      type: 3}
  - m_RefCount: 1
    m_Data: {fileID: -4605163527387846987, guid: 1fbb39a7834b7e745b583c727f0180a6,
      type: 3}
  - m_RefCount: 1
    m_Data: {fileID: -8673441916583476125, guid: 1fbb39a7834b7e745b583c727f0180a6,
      type: 3}
  - m_RefCount: 1
    m_Data: {fileID: 2160675205206706675, guid: 1fbb39a7834b7e745b583c727f0180a6,
      type: 3}
  - m_RefCount: 1
    m_Data: {fileID: -1040992118310419130, guid: 1fbb39a7834b7e745b583c727f0180a6,
      type: 3}
  - m_RefCount: 1
    m_Data: {fileID: -5859045247806993216, guid: 1fbb39a7834b7e745b583c727f0180a6,
      type: 3}
  - m_RefCount: 1
    m_Data: {fileID: 1946776270529680156, guid: 1fbb39a7834b7e745b583c727f0180a6,
      type: 3}
  - m_RefCount: 1
    m_Data: {fileID: 3679769539610414968, guid: 1fbb39a7834b7e745b583c727f0180a6,
      type: 3}
  - m_RefCount: 1
    m_Data: {fileID: -133517962813326697, guid: 1fbb39a7834b7e745b583c727f0180a6,
      type: 3}
  - m_RefCount: 1
    m_Data: {fileID: 974969132830988049, guid: 1fbb39a7834b7e745b583c727f0180a6, type: 3}
  - m_RefCount: 1
    m_Data: {fileID: 54813008368543375, guid: 1fbb39a7834b7e745b583c727f0180a6, type: 3}
  - m_RefCount: 1
    m_Data: {fileID: -1111467040747940836, guid: 1fbb39a7834b7e745b583c727f0180a6,
      type: 3}
  - m_RefCount: 1
    m_Data: {fileID: 4539572432158512276, guid: 1fbb39a7834b7e745b583c727f0180a6,
      type: 3}
  - m_RefCount: 1
    m_Data: {fileID: -440094530379634619, guid: 1fbb39a7834b7e745b583c727f0180a6,
      type: 3}
  - m_RefCount: 1
    m_Data: {fileID: 8436483236309373761, guid: 1fbb39a7834b7e745b583c727f0180a6,
      type: 3}
  - m_RefCount: 1
    m_Data: {fileID: -9128652258105010429, guid: 1fbb39a7834b7e745b583c727f0180a6,
      type: 3}
  - m_RefCount: 1
    m_Data: {fileID: 5991473849112003203, guid: 1fbb39a7834b7e745b583c727f0180a6,
      type: 3}
  - m_RefCount: 1
    m_Data: {fileID: 4330230722670678443, guid: 1fbb39a7834b7e745b583c727f0180a6,
      type: 3}
  - m_RefCount: 1
    m_Data: {fileID: -1691220034148343436, guid: 1fbb39a7834b7e745b583c727f0180a6,
      type: 3}
  - m_RefCount: 1
    m_Data: {fileID: 5437897656927332739, guid: 1fbb39a7834b7e745b583c727f0180a6,
      type: 3}
  - m_RefCount: 1
    m_Data: {fileID: 1307626347214929657, guid: 1fbb39a7834b7e745b583c727f0180a6,
      type: 3}
  - m_RefCount: 1
    m_Data: {fileID: 6276069379633589520, guid: 1fbb39a7834b7e745b583c727f0180a6,
      type: 3}
  - m_RefCount: 1
    m_Data: {fileID: 3608026245190458011, guid: 1fbb39a7834b7e745b583c727f0180a6,
      type: 3}
  - m_RefCount: 1
    m_Data: {fileID: -9167755149240453841, guid: 1fbb39a7834b7e745b583c727f0180a6,
      type: 3}
  - m_RefCount: 1
    m_Data: {fileID: -3026403903459387518, guid: 1fbb39a7834b7e745b583c727f0180a6,
      type: 3}
  - m_RefCount: 1
    m_Data: {fileID: -912226708761013127, guid: 1fbb39a7834b7e745b583c727f0180a6,
      type: 3}
  - m_RefCount: 1
    m_Data: {fileID: 64046951760991985, guid: 1fbb39a7834b7e745b583c727f0180a6, type: 3}
  - m_RefCount: 1
    m_Data: {fileID: 6731733094262721628, guid: 1fbb39a7834b7e745b583c727f0180a6,
      type: 3}
  - m_RefCount: 1
    m_Data: {fileID: 1018328791618719094, guid: 1fbb39a7834b7e745b583c727f0180a6,
      type: 3}
  - m_RefCount: 1
    m_Data: {fileID: -2209401061123471698, guid: 1fbb39a7834b7e745b583c727f0180a6,
      type: 3}
  - m_RefCount: 1
    m_Data: {fileID: -798795321885504356, guid: 1fbb39a7834b7e745b583c727f0180a6,
      type: 3}
  - m_RefCount: 1
    m_Data: {fileID: 2734534193476647528, guid: 1fbb39a7834b7e745b583c727f0180a6,
      type: 3}
  - m_RefCount: 1
    m_Data: {fileID: 4676232042555661266, guid: 1fbb39a7834b7e745b583c727f0180a6,
      type: 3}
  - m_RefCount: 1
    m_Data: {fileID: 26675975723062386, guid: 1fbb39a7834b7e745b583c727f0180a6, type: 3}
  - m_RefCount: 1
    m_Data: {fileID: 4060546897201354903, guid: 1fbb39a7834b7e745b583c727f0180a6,
      type: 3}
  - m_RefCount: 1
    m_Data: {fileID: -1824318353210508716, guid: 1fbb39a7834b7e745b583c727f0180a6,
      type: 3}
  - m_RefCount: 1
    m_Data: {fileID: 5679421691457111198, guid: 1fbb39a7834b7e745b583c727f0180a6,
      type: 3}
  - m_RefCount: 1
    m_Data: {fileID: 4072258924830223602, guid: 1fbb39a7834b7e745b583c727f0180a6,
      type: 3}
  - m_RefCount: 1
    m_Data: {fileID: -449521129324896115, guid: 1fbb39a7834b7e745b583c727f0180a6,
      type: 3}
  - m_RefCount: 1
    m_Data: {fileID: -4069433135438937170, guid: 1fbb39a7834b7e745b583c727f0180a6,
      type: 3}
  - m_RefCount: 1
    m_Data: {fileID: -3988596780175509632, guid: 1fbb39a7834b7e745b583c727f0180a6,
      type: 3}
  - m_RefCount: 1
    m_Data: {fileID: -2927467422400913361, guid: 1fbb39a7834b7e745b583c727f0180a6,
      type: 3}
  - m_RefCount: 1
    m_Data: {fileID: 7520313796697013927, guid: 1fbb39a7834b7e745b583c727f0180a6,
      type: 3}
  - m_RefCount: 1
    m_Data: {fileID: 1372472711436484874, guid: 1fbb39a7834b7e745b583c727f0180a6,
      type: 3}
  - m_RefCount: 1
    m_Data: {fileID: -5784052603835726715, guid: 1fbb39a7834b7e745b583c727f0180a6,
      type: 3}
  - m_RefCount: 1
    m_Data: {fileID: -1807440466647841244, guid: 1fbb39a7834b7e745b583c727f0180a6,
      type: 3}
  - m_RefCount: 1
    m_Data: {fileID: -3777550615242853001, guid: 1fbb39a7834b7e745b583c727f0180a6,
      type: 3}
  - m_RefCount: 1
    m_Data: {fileID: 6187717847525548743, guid: 1fbb39a7834b7e745b583c727f0180a6,
      type: 3}
  - m_RefCount: 1
    m_Data: {fileID: -4680151985043211058, guid: 1fbb39a7834b7e745b583c727f0180a6,
      type: 3}
  - m_RefCount: 1
    m_Data: {fileID: 6222405554938725553, guid: 1fbb39a7834b7e745b583c727f0180a6,
      type: 3}
  - m_RefCount: 1
    m_Data: {fileID: 7365494074633768783, guid: 1fbb39a7834b7e745b583c727f0180a6,
      type: 3}
  - m_RefCount: 1
    m_Data: {fileID: -2936289823458937912, guid: 1fbb39a7834b7e745b583c727f0180a6,
      type: 3}
  - m_RefCount: 1
    m_Data: {fileID: -9178284988810271814, guid: 1fbb39a7834b7e745b583c727f0180a6,
      type: 3}
  - m_RefCount: 1
    m_Data: {fileID: -6646765574518339977, guid: 1fbb39a7834b7e745b583c727f0180a6,
      type: 3}
  - m_RefCount: 1
    m_Data: {fileID: -362684925555704359, guid: 1fbb39a7834b7e745b583c727f0180a6,
      type: 3}
  - m_RefCount: 1
    m_Data: {fileID: -7521506733355556346, guid: 1fbb39a7834b7e745b583c727f0180a6,
      type: 3}
  - m_RefCount: 1
    m_Data: {fileID: 5906929534726048222, guid: 1fbb39a7834b7e745b583c727f0180a6,
      type: 3}
  - m_RefCount: 1
    m_Data: {fileID: -6448477584000896110, guid: 1fbb39a7834b7e745b583c727f0180a6,
      type: 3}
  - m_RefCount: 1
    m_Data: {fileID: 8428129474414255811, guid: 1fbb39a7834b7e745b583c727f0180a6,
      type: 3}
  - m_RefCount: 1
    m_Data: {fileID: -1012056433526176113, guid: 1fbb39a7834b7e745b583c727f0180a6,
      type: 3}
  - m_RefCount: 1
    m_Data: {fileID: -2637164433561087041, guid: 1fbb39a7834b7e745b583c727f0180a6,
      type: 3}
  - m_RefCount: 1
    m_Data: {fileID: 1593471797593777602, guid: 1fbb39a7834b7e745b583c727f0180a6,
      type: 3}
  - m_RefCount: 1
    m_Data: {fileID: -2968257392148234736, guid: 1fbb39a7834b7e745b583c727f0180a6,
      type: 3}
  - m_RefCount: 1
    m_Data: {fileID: -8481637368229455236, guid: 1fbb39a7834b7e745b583c727f0180a6,
      type: 3}
  - m_RefCount: 1
    m_Data: {fileID: -4436189772315592880, guid: 1fbb39a7834b7e745b583c727f0180a6,
      type: 3}
  - m_RefCount: 1
    m_Data: {fileID: -1505867770673229095, guid: 1fbb39a7834b7e745b583c727f0180a6,
      type: 3}
  - m_RefCount: 1
    m_Data: {fileID: 8751849822796938245, guid: 1fbb39a7834b7e745b583c727f0180a6,
      type: 3}
  - m_RefCount: 1
    m_Data: {fileID: -98240499126831795, guid: 1fbb39a7834b7e745b583c727f0180a6, type: 3}
  - m_RefCount: 1
    m_Data: {fileID: -4473804774917083361, guid: 1fbb39a7834b7e745b583c727f0180a6,
      type: 3}
  - m_RefCount: 1
    m_Data: {fileID: -872220218674159764, guid: 1fbb39a7834b7e745b583c727f0180a6,
      type: 3}
  - m_RefCount: 1
    m_Data: {fileID: -71973271898396677, guid: 1fbb39a7834b7e745b583c727f0180a6, type: 3}
  - m_RefCount: 1
    m_Data: {fileID: -2350811187745343328, guid: 1fbb39a7834b7e745b583c727f0180a6,
      type: 3}
  m_TileMatrixArray:
  - m_RefCount: 139
    m_Data:
      e00: 1
      e01: 0
      e02: 0
      e03: 0
      e10: 0
      e11: 1
      e12: 0
      e13: 0
      e20: 0
      e21: 0
      e22: 1
      e23: 0
      e30: 0
      e31: 0
      e32: 0
      e33: 1
  m_TileColorArray:
  - m_RefCount: 139
    m_Data: {r: 1, g: 1, b: 1, a: 1}
  m_TileObjectToInstantiateArray: []
  m_AnimationFrameRate: 1
  m_Color: {r: 1, g: 1, b: 1, a: 1}
  m_Origin: {x: -1, y: -10, z: 0}
  m_Size: {x: 18, y: 11, z: 1}
  m_TileAnchor: {x: 0.5, y: 0.5, z: 0}
  m_TileOrientation: 0
  m_TileOrientationMatrix:
    e00: 1
    e01: 0
    e02: 0
    e03: 0
    e10: 0
    e11: 1
    e12: 0
    e13: 0
    e20: 0
    e21: 0
    e22: 1
    e23: 0
    e30: 0
    e31: 0
    e32: 0
    e33: 1
--- !u!483693784 &3545502975019000518
TilemapRenderer:
  m_ObjectHideFlags: 0
  m_CorrespondingSourceObject: {fileID: 0}
  m_PrefabInstance: {fileID: 0}
  m_PrefabAsset: {fileID: 0}
  m_GameObject: {fileID: 6456805004129295480}
  m_Enabled: 0
  m_CastShadows: 0
  m_ReceiveShadows: 0
  m_DynamicOccludee: 0
  m_MotionVectors: 1
  m_LightProbeUsage: 0
  m_ReflectionProbeUsage: 0
  m_RayTracingMode: 0
  m_RenderingLayerMask: 1
  m_RendererPriority: 0
  m_Materials:
  - {fileID: 10754, guid: 0000000000000000f000000000000000, type: 0}
  m_StaticBatchInfo:
    firstSubMesh: 0
    subMeshCount: 0
  m_StaticBatchRoot: {fileID: 0}
  m_ProbeAnchor: {fileID: 0}
  m_LightProbeVolumeOverride: {fileID: 0}
  m_ScaleInLightmap: 1
  m_ReceiveGI: 1
  m_PreserveUVs: 0
  m_IgnoreNormalsForChartDetection: 0
  m_ImportantGI: 0
  m_StitchLightmapSeams: 1
  m_SelectedEditorRenderState: 0
  m_MinimumChartSize: 4
  m_AutoUVMaxDistance: 0.5
  m_AutoUVMaxAngle: 89
  m_LightmapParameters: {fileID: 0}
  m_SortingLayerID: 0
  m_SortingLayer: 0
  m_SortingOrder: 0
  m_ChunkSize: {x: 32, y: 32, z: 32}
  m_ChunkCullingBounds: {x: 0, y: 0, z: 0}
  m_MaxChunkCount: 16
  m_MaxFrameAge: 16
  m_SortOrder: 0
  m_Mode: 0
  m_DetectChunkCullingBounds: 0
  m_MaskInteraction: 0
--- !u!114 &7940602189271623718
MonoBehaviour:
  m_ObjectHideFlags: 0
  m_CorrespondingSourceObject: {fileID: 0}
  m_PrefabInstance: {fileID: 0}
  m_PrefabAsset: {fileID: 0}
  m_GameObject: {fileID: 0}
  m_Enabled: 1
  m_EditorHideFlags: 0
  m_Script: {fileID: 12395, guid: 0000000000000000e000000000000000, type: 0}
  m_Name: Palette Settings
  m_EditorClassIdentifier: 
  cellSizing: 0
